Assignment 1_3/Assignment 1_3.sim/sim_1/behav/xsim/simulate.log
Time resolution is 1 ps
At TIME(in ns) =                    0, A = 0 B = 0 C = 0 D = 0 f = 1
At TIME(in ns) =                10000, A = 0 B = 0 C = 0 D = 1 f = 1
At TIME(in ns) =                20000, A = 0 B = 0 C = 1 D = 0 f = 1
At TIME(in ns) =                30000, A = 0 B = 0 C = 1 D = 1 f = 0
At TIME(in ns) =                40000, A = 0 B = 1 C = 0 D = 0 f = 0
At TIME(in ns) =                50000, A = 0 B = 1 C = 0 D = 1 f = 1
At TIME(in ns) =                60000, A = 0 B = 1 C = 1 D = 0 f = 1
At TIME(in ns) =                70000, A = 0 B = 1 C = 1 D = 1 f = 1
At TIME(in ns) =                80000, A = 1 B = 0 C = 0 D = 0 f = 1
At TIME(in ns) =                90000, A = 1 B = 0 C = 0 D = 1 f = 1
At TIME(in ns) =               100000, A = 1 B = 0 C = 1 D = 0 f = 1
At TIME(in ns) =               110000, A = 1 B = 0 C = 1 D = 1 f = 0
At TIME(in ns) =               120000, A = 1 B = 1 C = 0 D = 0 f = 0
At TIME(in ns) =               130000, A = 1 B = 1 C = 0 D = 1 f = 1
At TIME(in ns) =               140000, A = 1 B = 1 C = 1 D = 0 f = 1
At TIME(in ns) =               150000, A = 1 B = 1 C = 1 D = 1 f = 1
At TIME(in ns) =               160000, A = 0 B = 0 C = 0 D = 0 f = 1
At TIME(in ns) =               170000, A = 0 B = 0 C = 0 D = 1 f = 1
At TIME(in ns) =               180000, A = 0 B = 0 C = 1 D = 0 f = 1
At TIME(in ns) =               190000, A = 0 B = 0 C = 1 D = 1 f = 0
$finish called at time : 200 ns : File "C:/Users/oscao/Assignment 1_3/Assignment 1_3.srcs/sim_1/new/tb_Circuit3.v" Line 44
